<svg width="67" height="68" viewBox="0 0 67 68" fill="none" xmlns="http://www.w3.org/2000/svg">
<path d="M34 47.5C43 47.5 45.25 38.5 45.25 38.5H22.75C22.75 38.5 25 47.5 34 47.5Z" fill="#353445"/>
<path d="M34 11.5C21.5935 11.5 11.5 21.5935 11.5 34C11.5 46.4065 21.5935 56.5 34 56.5C46.4065 56.5 56.5 46.4065 56.5 34C56.5 21.5935 46.4065 11.5 34 11.5ZM34 52C24.0753 52 16 43.9248 16 34C16 24.0753 24.0753 16 34 16C43.9248 16 52 24.0753 52 34C52 43.9248 43.9248 52 34 52Z" fill="#353445"/>
<path d="M36.25 34L40.75 34.027C40.777 32.9875 41.1865 31.75 43 31.75C44.8135 31.75 45.223 32.9875 45.25 34H49.75C49.75 31.2865 47.9522 27.25 43 27.25C38.0478 27.25 36.25 31.2865 36.25 34ZM25 31.75C26.8135 31.75 27.223 32.9875 27.25 34H31.75C31.75 31.2865 29.9522 27.25 25 27.25C20.0477 27.25 18.25 31.2865 18.25 34L22.75 34.027C22.777 32.9875 23.1865 31.75 25 31.75Z" fill="#353445"/>
</svg>
